…
``` r
library(tidyverse)
theme_set(theme_minimal() + theme(legend.position = "bottom"))
```

``` r
df_cum =
  read_csv("data/cmu-sleep.csv") |> 
  janitor::clean_names() |> 
  drop_na()

df_cum
```

    ## # A tibble: 481 × 15
    ##    subject_id study cohort demo_race demo_gender demo_firstgen bedtime_mssd
    ##         <dbl> <dbl> <chr>      <dbl>       <dbl>         <dbl>        <dbl>
    ##  1        185     5 lac1           1           1             0       0.117 
    ##  2        158     5 lac1           0           1             0       0.142 
    ##  3        209     5 lac1           1           1             0       1.53  
    ##  4        102     5 lac1           0           1             1       0.130 
    ##  5        174     5 lac1           1           1             0       0.130 
    ##  6        184     5 lac1           1           1             0       0.209 
    ##  7        255     5 lac1           1           1             0       0.675 
    ##  8        265     5 lac1           1           1             0       0.130 
    ##  9        343     5 lac1           1           0             0       1.48  
    ## 10        137     5 lac1           1           1             0       0.0850
    ## # ℹ 471 more rows
    ## # ℹ 8 more variables: total_sleep_time <dbl>, midpoint_sleep <dbl>,
    ## #   frac_nights_with_data <dbl>, daytime_sleep <dbl>, cum_gpa <dbl>,
    ## #   term_gpa <dbl>, term_units <dbl>, zterm_units_zof_z <dbl>
…
